{
  "photos": {
    "page": 1,
    "pages": 1215,
    "perpage": 250,
    "total": "303598",
    "photo": [
      {
        "id": "33784348168",
        "owner": "81217355@N00",
        "secret": "f9ed0a8012",
        "server": "65535",
        "farm": 66,
        "title": "Xochimilco",
        "ispublic": 1,
        "isfriend": 0,
        "isfamily": 0,
        "latitude": "19.251994",
        "longitude": "-99.110326",
        "accuracy": "14",
        "context": 0,
        "place_id": "B6YT6ZpUV7IZ1KYs_w",
        "woeid": "55898261",
        "geo_is_family": 0,
        "geo_is_friend": 0,
        "geo_is_contact": 0,
        "geo_is_public": 1,
        "url_s": "https:\/\/live.staticflickr.com\/65535\/33784348168_f9ed0a8012_m.jpg",
        "height_s": "160",
        "width_s": "240"
      },
      {
        "id": "33784343288",
        "owner": "81217355@N00",
        "secret": "56b495c659",
        "server": "65535",
        "farm": 66,
        "title": "Xochimilco",
        "ispublic": 1,
        "isfriend": 0,
        "isfamily": 0,
        "latitude": "19.251994",
        "longitude": "-99.110326",
        "accuracy": "14",
        "context": 0,
        "place_id": "B6YT6ZpUV7IZ1KYs_w",
        "woeid": "55898261",
        "geo_is_family": 0,
        "geo_is_friend": 0,
        "geo_is_contact": 0,
        "geo_is_public": 1,
        "url_s": "https:\/\/live.staticflickr.com\/65535\/33784343288_56b495c659_m.jpg",
        "height_s": "160",
        "width_s": "240"
      },
      {
        "id": "40695178713",
        "owner": "81217355@N00",
        "secret": "e349eb3a25",
        "server": "65535",
        "farm": 66,
        "title": "Xochimilco",
        "ispublic": 1,
        "isfriend": 0,
        "isfamily": 0,
        "latitude": "19.251994",
        "longitude": "-99.110326",
        "accuracy": "14",
        "context": 0,
        "place_id": "B6YT6ZpUV7IZ1KYs_w",
        "woeid": "55898261",
        "geo_is_family": 0,
        "geo_is_friend": 0,
        "geo_is_contact": 0,
        "geo_is_public": 1,
        "url_s": "https:\/\/live.staticflickr.com\/65535\/40695178713_e349eb3a25_m.jpg",
        "height_s": "192",
        "width_s": "240"
      },
      {
        "id": "46937643984",
        "owner": "81217355@N00",
        "secret": "a248e62a0f",
        "server": "65535",
        "farm": 66,
        "title": "Xochimilco",
        "ispublic": 1,
        "isfriend": 0,
        "isfamily": 0,
        "latitude": "19.251994",
        "longitude": "-99.110326",
        "accuracy": "14",
        "context": 0,
        "place_id": "B6YT6ZpUV7IZ1KYs_w",
        "woeid": "55898261",
        "geo_is_family": 0,
        "geo_is_friend": 0,
        "geo_is_contact": 0,
        "geo_is_public": 1,
        "url_s": "https:\/\/live.staticflickr.com\/65535\/46937643984_a248e62a0f_m.jpg",
        "height_s": "192",
        "width_s": "240"
      },
      {
        "id": "32719048547",
        "owner": "81217355@N00",
        "secret": "9cfd3f552e",
        "server": "65535",
        "farm": 66,
        "title": "Mexico City",
        "ispublic": 1,
        "isfriend": 0,
        "isfamily": 0,
        "latitude": "19.427043",
        "longitude": "-99.167693",
        "accuracy": "16",
        "context": 0,
        "place_id": "hc51ODZUV7MdoXd3_Q",
        "woeid": "55903984",
        "geo_is_family": 0,
        "geo_is_friend": 0,
        "geo_is_contact": 0,
        "geo_is_public": 1,
        "url_s": "https:\/\/live.staticflickr.com\/65535\/32719048547_9cfd3f552e_m.jpg",
        "height_s": "192",
        "width_s": "240"
      },
      {
        "id": "32719046767",
        "owner": "81217355@N00",
        "secret": "098d20d558",
        "server": "65535",
        "farm": 66,
        "title": "Mexico City",
        "ispublic": 1,
        "isfriend": 0,
        "isfamily": 0,
        "latitude": "19.427043",
        "longitude": "-99.167693",
        "accuracy": "16",
        "context": 0,
        "place_id": "hc51ODZUV7MdoXd3_Q",
        "woeid": "55903984",
        "geo_is_family": 0,
        "geo_is_friend": 0,
        "geo_is_contact": 0,
        "geo_is_public": 1,
        "url_s": "https:\/\/live.staticflickr.com\/65535\/32719046767_098d20d558_m.jpg",
        "height_s": "240",
        "width_s": "192"
      },
      {
        "id": "47661693541",
        "owner": "81217355@N00",
        "secret": "df4909d7db",
        "server": "65535",
        "farm": 66,
        "title": "Mexico City",
        "ispublic": 1,
        "isfriend": 0,
        "isfamily": 0,
        "latitude": "19.427043",
        "longitude": "-99.167693",
        "accuracy": "16",
        "context": 0,
        "place_id": "hc51ODZUV7MdoXd3_Q",
        "woeid": "55903984",
        "geo_is_family": 0,
        "geo_is_friend": 0,
        "geo_is_contact": 0,
        "geo_is_public": 1,
        "url_s": "https:\/\/live.staticflickr.com\/65535\/47661693541_df4909d7db_m.jpg",
        "height_s": "192",
        "width_s": "240"
      },
      {
        "id": "32719043867",
        "owner": "81217355@N00",
        "secret": "f9afce3496",
        "server": "65535",
        "farm": 66,
        "title": "Mexico City",
        "ispublic": 1,
        "isfriend": 0,
        "isfamily": 0,
        "latitude": "19.428104",
        "longitude": "-99.178669",
        "accuracy": "15",
        "context": 0,
        "place_id": "wRV9cjZUV7LoICf_VA",
        "woeid": "55897817",
        "geo_is_family": 0,
        "geo_is_friend": 0,
        "geo_is_contact": 0,
        "geo_is_public": 1,
        "url_s": "https:\/\/live.staticflickr.com\/65535\/32719043867_f9afce3496_m.jpg",
        "height_s": "160",
        "width_s": "240"
      }
    ]
  },
  "stat": "ok"
}